%YAML 1.1
%TAG !u! tag:unity3d.com,2011:
--- !u!114 &11400000
MonoBehaviour:
  m_ObjectHideFlags: 0
  m_CorrespondingSourceObject: {fileID: 0}
  m_PrefabInstance: {fileID: 0}
  m_PrefabAsset: {fileID: 0}
  m_GameObject: {fileID: 0}
  m_Enabled: 1
  m_EditorHideFlags: 0
  m_Script: {fileID: 11500000, guid: 9b31054cfe7032d46a1aa78b88792718, type: 3}
  m_Name: Fireball
  m_EditorClassIdentifier: 
  animatorOverride: {fileID: 22100000, guid: e87bea7a87fa6ba46ba27797b3da4341, type: 2}
  weaponPrefab: {fileID: 0}
  weaponRange: 20
  timeBetweenAttacks: 3
  weaponDamage: 20
  percentageBonus: 10
  isRightHanded: 0
  projectile: {fileID: 8406318368154716505, guid: 27987c9b4b392954ca3f0c90a9850882,
    type: 3}
