%YAML 1.1
%TAG !u! tag:unity3d.com,2011:
--- !u!1 &1518522186165328274
GameObject:
  m_ObjectHideFlags: 0
  m_CorrespondingSourceObject: {fileID: 0}
  m_PrefabInstance: {fileID: 0}
  m_PrefabAsset: {fileID: 0}
  serializedVersion: 6
  m_Component:
  - component: {fileID: 6548314358852079139}
  m_Layer: 0
  m_Name: Level Up
  m_TagString: Untagged
  m_Icon: {fileID: 0}
  m_NavMeshLayer: 0
  m_StaticEditorFlags: 0
  m_IsActive: 1
--- !u!4 &6548314358852079139
Transform:
  m_ObjectHideFlags: 0
  m_CorrespondingSourceObject: {fileID: 0}
  m_PrefabInstance: {fileID: 0}
  m_PrefabAsset: {fileID: 0}
  m_GameObject: {fileID: 1518522186165328274}
  m_LocalRotation: {x: 0, y: 0, z: 0, w: 1}
  m_LocalPosition: {x: 0, y: 0, z: 0}
  m_LocalScale: {x: 1, y: 1, z: 1}
  m_Children:
  - {fileID: 1951501051686273607}
  m_Father: {fileID: 0}
  m_RootOrder: 0
  m_LocalEulerAnglesHint: {x: 0, y: 0, z: 0}
--- !u!114 &2741000059533253680
MonoBehaviour:
  m_ObjectHideFlags: 0
  m_CorrespondingSourceObject: {fileID: 0}
  m_PrefabInstance: {fileID: 0}
  m_PrefabAsset: {fileID: 0}
  m_GameObject: {fileID: 1946256923593848203}
  m_Enabled: 1
  m_EditorHideFlags: 0
  m_Script: {fileID: 11500000, guid: 0ce0473137b86f441aa6984968611c4f, type: 3}
  m_Name: 
  m_EditorClassIdentifier: 
  targetToDestroy: {fileID: 1518522186165328274}
--- !u!1001 &1946742204150909395
PrefabInstance:
  m_ObjectHideFlags: 0
  serializedVersion: 2
  m_Modification:
    m_TransformParent: {fileID: 6548314358852079139}
    m_Modifications:
    - target: {fileID: 1770094935522392, guid: 7098bdbdcde165049872f566c6a00e5f, type: 3}
      propertyPath: m_Name
      value: SH_VFX
      objectReference: {fileID: 0}
    - target: {fileID: 4829491530746772, guid: 7098bdbdcde165049872f566c6a00e5f, type: 3}
      propertyPath: m_LocalPosition.x
      value: 0
      objectReference: {fileID: 0}
    - target: {fileID: 4829491530746772, guid: 7098bdbdcde165049872f566c6a00e5f, type: 3}
      propertyPath: m_LocalPosition.y
      value: 0.91
      objectReference: {fileID: 0}
    - target: {fileID: 4829491530746772, guid: 7098bdbdcde165049872f566c6a00e5f, type: 3}
      propertyPath: m_LocalPosition.z
      value: 0
      objectReference: {fileID: 0}
    - target: {fileID: 4829491530746772, guid: 7098bdbdcde165049872f566c6a00e5f, type: 3}
      propertyPath: m_LocalRotation.x
      value: 0.7071068
      objectReference: {fileID: 0}
    - target: {fileID: 4829491530746772, guid: 7098bdbdcde165049872f566c6a00e5f, type: 3}
      propertyPath: m_LocalRotation.y
      value: -0
      objectReference: {fileID: 0}
    - target: {fileID: 4829491530746772, guid: 7098bdbdcde165049872f566c6a00e5f, type: 3}
      propertyPath: m_LocalRotation.z
      value: -0
      objectReference: {fileID: 0}
    - target: {fileID: 4829491530746772, guid: 7098bdbdcde165049872f566c6a00e5f, type: 3}
      propertyPath: m_LocalRotation.w
      value: -0.7071068
      objectReference: {fileID: 0}
    - target: {fileID: 4829491530746772, guid: 7098bdbdcde165049872f566c6a00e5f, type: 3}
      propertyPath: m_RootOrder
      value: 0
      objectReference: {fileID: 0}
    - target: {fileID: 4829491530746772, guid: 7098bdbdcde165049872f566c6a00e5f, type: 3}
      propertyPath: m_LocalEulerAnglesHint.x
      value: 270
      objectReference: {fileID: 0}
    - target: {fileID: 4829491530746772, guid: 7098bdbdcde165049872f566c6a00e5f, type: 3}
      propertyPath: m_LocalEulerAnglesHint.y
      value: 0
      objectReference: {fileID: 0}
    - target: {fileID: 4829491530746772, guid: 7098bdbdcde165049872f566c6a00e5f, type: 3}
      propertyPath: m_LocalEulerAnglesHint.z
      value: 0
      objectReference: {fileID: 0}
    - target: {fileID: 198969377575857584, guid: 7098bdbdcde165049872f566c6a00e5f,
        type: 3}
      propertyPath: moveWithTransform
      value: 1
      objectReference: {fileID: 0}
    m_RemovedComponents: []
  m_SourcePrefab: {fileID: 100100000, guid: 7098bdbdcde165049872f566c6a00e5f, type: 3}
--- !u!1 &1946256923593848203 stripped
GameObject:
  m_CorrespondingSourceObject: {fileID: 1770094935522392, guid: 7098bdbdcde165049872f566c6a00e5f,
    type: 3}
  m_PrefabInstance: {fileID: 1946742204150909395}
  m_PrefabAsset: {fileID: 0}
--- !u!4 &1951501051686273607 stripped
Transform:
  m_CorrespondingSourceObject: {fileID: 4829491530746772, guid: 7098bdbdcde165049872f566c6a00e5f,
    type: 3}
  m_PrefabInstance: {fileID: 1946742204150909395}
  m_PrefabAsset: {fileID: 0}
